{
    "name": "ionic2-app-base",
    "app_id": "",
    "typescript": true,
    "v2": true,
    "proxies": [{
        "path": "/search",
        "proxyUrl": "http://autocomplete.wunderground.com"
    }]
}
